More examples • rscorecard
…
You can also return the data dictionary as a tibble. When storing the dictionary in an object, it may be useful to set print_off = TRUE so that the dictionary results don’t print to the console:

dict_df <- sc_dict('stabbr', print_off = TRUE, return_df = TRUE)
dict_df
#> # A tibble: 1 x 8
#>   varname value label description  source dev_friendly_na… dev_category notes   
#>   <chr>   <dbl> <chr> <chr>        <chr>  <chr>            <chr>        <chr>   
#> 1 stabbr     NA <NA>  State postc… IPEDS  state            school       Shown/u…

If you want the full data dictionary, simply search for '.':

dict_df <- sc_dict('.', print_off = TRUE, return_df = TRUE)
dict_df
#> # A tibble: 2,260 x 8
#>    varname  value label description  source dev_friendly_na… dev_category notes 
#>    <chr>    <dbl> <chr> <chr>        <chr>  <chr>            <chr>        <chr> 
#>  1 unitid      NA <NA>  Unit ID for… IPEDS  id               root         Shown…
#>  2 opeid       NA <NA>  8-digit OPE… IPEDS  ope8_id          root         Shown…
#>  3 opeid6      NA <NA>  6-digit OPE… IPEDS  ope6_id          root         Shown…
#>  4 instnm      NA <NA>  Institution… IPEDS  name             school       Shown…
#>  5 city        NA <NA>  City         IPEDS  city             school       Shown…
#>  6 stabbr      NA <NA>  State postc… IPEDS  state            school       Shown…
#>  7 zip         NA <NA>  ZIP code     IPEDS  zip              school       Shown…
#>  8 accreda…    NA <NA>  Accreditor … FSA    accreditor       school       Shown…
#>  9 insturl     NA <NA>  URL for ins… IPEDS  school_url       school       Shown…
#> 10 npcurl      NA <NA>  URL for ins… IPEDS  price_calculato… school       Shown…
#> # … with 2,250 more rows
…
