Downloading Department of Education College Scorecard Data • rscorecard
…
Large pull

## median earnings for students who first enrolled in a public
## college in the New England or Mid-Atlantic regions: 10 years later
df <- sc_init() %>% 
    sc_filter(control == 1, region == 1:2, ccbasic == 1:24) %>% 
    sc_select(unitid, instnm, md_earn_wne_p10) %>% 
    sc_year(2009) %>%
    sc_get()
#> Large request will require: 2 additional pulls.
#> Request chunk 1
#> Request chunk 2
#> Request complete!
df
#> # A tibble: 280 x 4
#>    instnm                                      md_earn_wne_p10 unitid  year
#>    <chr>                                                 <int>  <int> <dbl>
#>  1 Community College of Baltimore County                 36200 434672  2009
#>  2 Suffolk County Community College                      38200 366395  2009
#>  3 Capital Community College                             34100 129367  2009
#>  4 Quinebaug Valley Community College                    28600 130217  2009
#>  5 Delaware Technical Community College-Terry            30900 130907  2009
#>  6 Central Connecticut State University                  46400 128771  2009
#>  7 Norwalk Community College                             34100 130004  2009
#>  8 Asnuntuck Community College                           30200 128577  2009
#>  9 Delaware State University                             38100 130934  2009
#> 10 Stella and Charles Guttman Community Colle…              NA 475565  2009
#> # … with 270 more rows
…
