More examples • rscorecard
…
## median earnings for students who first enrolled in a public
## college in the New England or Mid-Atlantic regions: 10 years later
df <- sc_init() %>% 
    sc_filter(control == 1, region == 1:2, ccbasic == 1:24) %>% 
    sc_select(unitid, instnm, md_earn_wne_p10) %>% 
    sc_year(2009) %>%
    sc_get()
#> Large request will require: 2 additional pulls.
#> Request chunk 1
#> Request chunk 2
#> Request complete!

df
#> # A tibble: 280 x 4
#>    unitid instnm                                    md_earn_wne_p10  year
#>     <int> <chr>                                               <int> <dbl>
#>  1 161077 Central Maine Community College                     33800  2009
#>  2 163204 University of Maryland-University College           52100  2009
#>  3 161554 University of Southern Maine                        36700  2009
#>  4 161217 University of Maine at Augusta                      28900  2009
#>  5 162584 Frostburg State University                          45500  2009
#>  6 161244 University of Maine at Machias                      28300  2009
#>  7 162104 Cecil College                                       34300  2009
#>  8 161581 Washington County Community College                 24500  2009
#>  9 161767 Anne Arundel Community College                      41800  2009
#> 10 161864 Baltimore City Community College                    31000  2009
#> # … with 270 more rows
…
