…
If you want the full data dictionary, simply search for `"."`:

``` r
dict_df <- sc_dict(".", print_off = TRUE, return_df = TRUE)
dict_df
#> # A tibble: 3,755 × 9
#>    varname   value label description source dev_friendly_name dev_category notes
#>    <chr>     <dbl> <chr> <chr>       <chr>  <chr>             <chr>        <chr>
#>  1 unitid       NA NA    Unit ID fo… IPEDS  id                root         NA   
#>  2 opeid        NA NA    8-digit OP… IPEDS  ope8_id           root         NA   
#>  3 opeid6       NA NA    6-digit OP… IPEDS  ope6_id           root         NA   
#>  4 instnm       NA NA    Institutio… IPEDS  name              school       NA   
#>  5 city         NA NA    City        IPEDS  city              school       NA   
#>  6 stabbr       NA NA    State post… IPEDS  state             school       NA   
#>  7 zip          NA NA    ZIP code    IPEDS  zip               school       NA   
#>  8 accredag…    NA NA    Accreditor… FSA    accreditor        school       NA   
#>  9 insturl      NA NA    URL for in… IPEDS  school_url        school       NA   
#> 10 npcurl       NA NA    URL for in… IPEDS  price_calculator… school       NA   
#> # ℹ 3,745 more rows
#> # ℹ 1 more variable: can_filter <dbl>
```
