…
``` r
df <- sc_init() |> 
    sc_filter(region == 2, ccbasic == c(21,22,23), locale == 41:43) |> 
    sc_select(unitid, instnm, stabbr, ugds, cipcode, cipdesc, debt_mdn) |>
    sc_year("latest") |> 
    sc_get()
#> Request complete!
```

``` r
## filter to show only those with non-NA values for median debt
df |> dplyr::filter(!is.na(debt_mdn))
#> # A tibble: 497 × 8
#>    unitid instnm                     stabbr  ugds cipcode cipdesc debt_mdn year 
#>     <int> <chr>                      <chr>  <int> <chr>   <chr>      <int> <chr>
#>  1 163912 St. Mary's College of Mar… MD      1603 0301    Natura…    17000 late…
#>  2 163912 St. Mary's College of Mar… MD      1603 0501    Area S…    17000 late…
#>  3 163912 St. Mary's College of Mar… MD      1603 1101    Comput…    17000 late…
#>  4 163912 St. Mary's College of Mar… MD      1603 1301    Educat…    17000 late…
#>  5 163912 St. Mary's College of Mar… MD      1603 1601    Lingui…    17000 late…
#>  6 163912 St. Mary's College of Mar… MD      1603 2301    Englis…    17000 late…
#>  7 163912 St. Mary's College of Mar… MD      1603 2601    Biolog…    17000 late…
#>  8 163912 St. Mary's College of Mar… MD      1603 2602    Bioche…    17000 late…
#>  9 163912 St. Mary's College of Mar… MD      1603 2615    Neurob…    17000 late…
#> 10 163912 St. Mary's College of Mar… MD      1603 2701    Mathem…    17000 late…
#> # ℹ 487 more rows
```
…
