Getting started • rscorecard
…
In the fall of 2019, the College Scorecard released field of
study-level data elements (4 digit CIP code level). These data elements
can be requested alongside institution-level data:

df <- sc_init() |> 
    sc_filter(region == 2, ccbasic == c(21,22,23), locale == 41:43) |> 
    sc_select(unitid, instnm, stabbr, ugds, cipcode, cipdesc, debt_mdn) |>
    sc_year("latest") |> 
    sc_get()
#> Request complete!

## filter to show only those with non-NA values for median debt
df |> dplyr::filter(!is.na(debt_mdn))
#> # A tibble: 179 × 8
#>    unitid instnm              stabbr  ugds cipcode cipdesc        debt_mdn year 
#>     <int> <chr>               <chr>  <int> <chr>   <chr>             <int> <chr>
#>  1 191676 Houghton University NY       745 0105    Agricultural …    20313 late…
#>  2 191676 Houghton University NY       745 0501    Area Studies.     20313 late…
#>  3 191676 Houghton University NY       745 0901    Communication…    20313 late…
#>  4 191676 Houghton University NY       745 1101    Computer and …    20313 late…
#>  5 191676 Houghton University NY       745 1104    Information S…    20313 late…
#>  6 191676 Houghton University NY       745 1312    Teacher Educa…    20313 late…
#>  7 191676 Houghton University NY       745 1313    Teacher Educa…    20313 late…
#>  8 191676 Houghton University NY       745 1313    Teacher Educa…    20313 late…
#>  9 191676 Houghton University NY       745 1314    Teaching Engl…    20313 late…
#> 10 191676 Houghton University NY       745 1412    Engineering P…    20313 late…
#> # ℹ 169 more rows
…
