…
``` r
df
#> # A tibble: 243 × 4
#>    unitid instnm                                     md_earn_wne_p10  year
#>     <int> <chr>                                                <int> <dbl>
#>  1 128771 Central Connecticut State University                 46400  2009
#>  2 128780 Charter Oak State College                               NA  2009
#>  3 129020 University of Connecticut                            54500  2009
#>  4 129215 Eastern Connecticut State University                 43600  2009
#>  5 129367 Connecticut State Community College                  34100  2009
#>  6 130493 Southern Connecticut State University                44300  2009
#>  7 130776 Western Connecticut State University                 44100  2009
#>  8 130907 Delaware Technical Community College-Terry           30900  2009
#>  9 130934 Delaware State University                            38100  2009
#> 10 130943 University of Delaware                               56300  2009
#> # ℹ 233 more rows
```
